…
``` r
# TODO Start with basic read in of spreadsheet and extracting the proper cells.
sheet <- "spreadsheets/Ex/Copy of Tidal Field Data blank.xlsm" 
# Tidy up the sheets. 
cells <- xlsx_cells(sheet) %>% 
  filter(is_blank == FALSE, sheet != "Data Sheet - BLANK") 
  
cells
```

    ## # A tibble: 1,045 x 21
    ##    sheet address   row   col is_blank data_type error logical numeric
    ##    <chr> <chr>   <int> <int> <lgl>    <chr>     <chr> <lgl>     <dbl>
    ##  1 Data~ A1          1     1 FALSE    character <NA>  NA           NA
    ##  2 Data~ A5          5     1 FALSE    character <NA>  NA           NA
    ##  3 Data~ G7          7     7 FALSE    character <NA>  NA           NA
    ##  4 Data~ A9          9     1 FALSE    character <NA>  NA           NA
    ##  5 Data~ V9          9    22 FALSE    character <NA>  NA           NA
    ##  6 Data~ V10        10    22 FALSE    character <NA>  NA           NA
    ##  7 Data~ A11        11     1 FALSE    character <NA>  NA           NA
    ##  8 Data~ V11        11    22 FALSE    character <NA>  NA           NA
    ##  9 Data~ A12        12     1 FALSE    character <NA>  NA           NA
    ## 10 Data~ V12        12    22 FALSE    character <NA>  NA           NA
    ## # ... with 1,035 more rows, and 12 more variables: date <dttm>,
    ## #   character <chr>, character_formatted <list>, formula <chr>, is_array <lgl>,
    ## #   formula_ref <chr>, formula_group <int>, comment <chr>, height <dbl>,
    ## #   width <dbl>, style_format <chr>, local_format_id <int>
…
